{
  "compilerOptions": {
    "baseUrl": ".",
    "paths": {
      "@/public/*": ["public/*"],
      "@/components/*": ["components/*"],
      "@/pages/*": ["pages/*"],
      "@/functions/*": ["functions/*"],
      "@/api/*": ["api/*"],
      "@/styles/*": ["styles/*"],
      "@/data/*": ["data/*"],
      "@/svg/*": ["svg/*"],
      "@/servers/*": ["servers/*"]
    }
  }
}